<?xml version="1.0" standalone="no"?>
<!DOCTYPE svg PUBLIC "-//W3C//DTD SVG 20010904//EN"
 "http://www.w3.org/TR/2001/REC-SVG-20010904/DTD/svg10.dtd">
<svg version="1.0" xmlns="http://www.w3.org/2000/svg"
 width="300.000000pt" height="300.000000pt" viewBox="0 0 300.000000 300.000000"
 preserveAspectRatio="xMidYMid meet">
<metadata>
Created by potrace 1.11, written by Peter Selinger 2001-2013
</metadata>
<g transform="translate(0.000000,300.000000) scale(0.100000,-0.100000)"
fill="#000000" stroke="none">
<path d="M217 2986 c-98 -27 -186 -119 -206 -219 -8 -36 -11 -430 -9 -1297 l3
-1245 28 -57 c32 -64 80 -111 146 -142 46 -21 49 -21 1308 -24 l1261 -2 58 21
c77 29 144 96 173 173 l21 58 -2 1261 c-3 1259 -3 1262 -24 1308 -31 66 -78
114 -142 146 l-57 28 -1255 2 c-1003 1 -1265 -1 -1303 -11z m1530 -672 c81
-17 260 -77 276 -93 14 -14 -93 -273 -110 -267 -150 58 -234 79 -334 84 -96 4
-112 2 -153 -17 -80 -39 -113 -125 -78 -204 25 -57 57 -80 222 -162 273 -136
373 -213 432 -333 30 -61 33 -76 36 -177 4 -125 -15 -203 -69 -281 -63 -92
-187 -167 -326 -198 -95 -21 -313 -21 -423 0 -83 15 -214 58 -238 76 -15 13
-18 318 -2 318 5 0 54 -17 107 -39 146 -58 261 -84 373 -85 82 -1 102 3 145
24 65 33 95 77 95 143 0 97 -40 134 -280 255 -91 46 -193 104 -228 129 -73 52
-142 139 -171 217 -43 116 -34 271 23 384 54 106 182 197 319 227 87 19 291
19 384 -1z"/>
</g>
</svg>
